lab10/singlecycle.vcd
$date
	Thu Apr 23 23:18:39 2020
$end

$version
	Synopsys VCS version L-2016.06_Full64
$end

$timescale
	1ps
$end

$comment Csum: 1 406b2d69a2e487d1 $end


$scope module SingleCycleProcTest_v $end
$var reg 1 ! CLK $end
$var reg 1 " Reset_L $end
$var reg 64 # startPC [63:0] $end
$var reg 8 $ passed [7:0] $end
$var reg 16 % watchdog [15:0] $end
$var wire 64 & dMemOut [63:0] $end
$var wire 64 ' currentPC [63:0] $end

$scope task passTest $end
$var reg 64 ( actualOut [63:0] $end
$var reg 64 ) expectedOut [63:0] $end
$var reg 257 * testType [256:0] $end
$var reg 8 + passed [7:0] $end
$upscope $end


$scope task allPassed $end
$var reg 8 , passed [7:0] $end
$var reg 8 - numTests [7:0] $end
$upscope $end


$scope module uut $end
$var wire 1 " resetl $end
$var wire 64 # startpc [63:0] $end
$var reg 64 ' currentpc [63:0] $end
$var wire 64 & dmemout [63:0] $end
$var wire 1 ! CLK $end
$var wire 64 . nextpc [63:0] $end
$var wire 32 / instruction [31:0] $end
$var wire 5 0 rd [4:0] $end
$var wire 5 1 rm [4:0] $end
$var wire 5 2 rn [4:0] $end
$var wire 11 3 opcode [10:0] $end
$var wire 1 4 reg2loc $end
$var wire 1 5 alusrc $end
$var wire 1 6 mem2reg $end
$var wire 1 7 regwrite $end
$var wire 1 8 memread $end
$var wire 1 9 memwrite $end
$var wire 1 : branch $end
$var wire 1 ; uncond_branch $end
$var wire 4 < aluctrl [3:0] $end
$var wire 3 = signop [2:0] $end
$var wire 64 > regoutA [63:0] $end
$var wire 64 ? regoutB [63:0] $end
$var wire 64 @ extimm [63:0] $end
$var wire 64 A aluout [63:0] $end
$var wire 64 B inputB [63:0] $end
$var wire 1 C zero $end
$var wire 64 D busW [63:0] $end

$scope module imem $end
$var reg 32 / Data [31:0] $end
$var wire 64 ' Address [63:0] $end
$upscope $end


$scope module npc $end
$var reg 64 . NextPC [63:0] $end
$var wire 64 ' CurrentPC [63:0] $end
$var wire 64 @ SignExtImm64 [63:0] $end
$var wire 1 : Branch $end
$var wire 1 C ALUZero $end
$var wire 1 ; Uncondbranch $end
$upscope $end


$scope module control $end
$var reg 1 4 reg2loc $end
$var reg 1 5 alusrc $end
$var reg 1 6 mem2reg $end
$var reg 1 7 regwrite $end
$var reg 1 8 memread $end
$var reg 1 9 memwrite $end
$var reg 1 : branch $end
$var reg 1 ; uncond_branch $end
$var reg 4 < aluop [3:0] $end
$var reg 3 = signop [2:0] $end
$var wire 11 E opcode [10:0] $end
$upscope $end


$scope module rf $end
$var wire 64 > BusA [63:0] $end
$var wire 64 ? BusB [63:0] $end
$var wire 64 D BusW [63:0] $end
$var wire 5 1 RA [4:0] $end
$var wire 5 2 RB [4:0] $end
$var wire 5 0 RW [4:0] $end
$var wire 1 7 RegWr $end
$var wire 1 ! Clk $end
$upscope $end


$scope module se $end
$var reg 64 F Imm64 [63:0] $end
$var wire 26 G Imm26 [25:0] $end
$var wire 3 = Ctrl [2:0] $end
$var reg 1 H extBit $end
$upscope $end


$scope module alu $end
$var reg 64 A BusW [63:0] $end
$var wire 64 > BusA [63:0] $end
$var wire 64 B BusB [63:0] $end
$var wire 4 < ALUCtrl [3:0] $end
$var wire 1 C Zero $end
$upscope $end


$scope module dmem $end
$var wire 64 ? WriteData [63:0] $end
$var wire 64 A Address [63:0] $end
$var wire 1 ! Clock $end
$var wire 1 8 MemoryRead $end
$var wire 1 9 MemoryWrite $end
$var reg 64 & ReadData [63:0] $end

$scope task initset $end
$var reg 64 I addr [63:0] $end
$var reg 64 J data [63:0] $end
$upscope $end

$upscope $end

$upscope $end

$upscope $end

$enddefinitions $end

#0
$dumpvars
0!
1"
x5
x:
x6
x8
x9
x4
x7
x;
xH
xC
bxxxxxxxxxxxxxxxxxxxxxxxxxxxxxxxxxxxxxxxxxxxxxxxxxxxxxxxxxxxxxxxx A
bxxxxxxxxxxxxxxxxxxxxxxxxxxxxxxxx /
bxxxxxxxxxxxxxxxxxxxxxxxxxxxxxxxxxxxxxxxxxxxxxxxxxxxxxxxxxxxxxxxx F
bxxxxxxxxxxxxxxxxxxxxxxxxxxxxxxxxxxxxxxxxxxxxxxxxxxxxxxxxxxxxxxxx .
bxxxxxxxxxxxxxxxxxxxxxxxxxxxxxxxxxxxxxxxxxxxxxxxxxxxxxxxxxxxxxxxx &
bxxxxxxxx -
bxxxxxxxx ,
bxxxx <
bxxxxxxxxxxxxxxxxxxxxxxxxxxxxxxxxxxxxxxxxxxxxxxxxxxxxxxxxxxxxxxxx D
bxxxxxxxxxxx E
bxxx =
bxxxxxxxxxxxxxxxxxxxxxxxxxxxxxxxxxxxxxxxxxxxxxxxxxxxxxxxxxxxxxxxx '
bxxxxxxxxxxxxxxxxxxxxxxxxxxxxxxxxxxxxxxxxxxxxxxxxxxxxxxxxxxxxxxxx @
b0000000000000000000000000000000000000000000000000000000000100000 I
b0000000000000000000000000000000000000000000000000000000000000000 J
bxxxxxxxxxxxxxxxxxxxxxxxxxxxxxxxxxxxxxxxxxxxxxxxxxxxxxxxxxxxxxxxx B
bxxxxxxxxxxxxxxxxxxxxxxxxxxxxxxxxxxxxxxxxxxxxxxxxxxxxxxxxxxxxxxxx (
bxxxxxxxxxxxxxxxxxxxxxxxxxxxxxxxxxxxxxxxxxxxxxxxxxxxxxxxxxxxxxxxx )
bxxxxxxxx +
bxxxxxxxxxxxxxxxxxxxxxxxxxxxxxxxxxxxxxxxxxxxxxxxxxxxxxxxxxxxxxxxxxxxxxxxxxxxxxxxxxxxxxxxxxxxxxxxxxxxxxxxxxxxxxxxxxxxxxxxxxxxxxxxxxxxxxxxxxxxxxxxxxxxxxxxxxxxxxxxxxxxxxxxxxxxxxxxxxxxxxxxxxxxxxxxxxxxxxxxxxxxxxxxxxxxxxxxxxxxxxxxxxxxxxxxxxxxxxxxxxxxxxxxxxxxxxxxxx *
b00000000 $
bxxxxxxxxxxxxxxxxxxxxxxxxxxxxxxxxxxxxxxxxxxxxxxxxxxxxxxxxxxxxxxxx >
bxxxxxxxxxxxxxxxxxxxxxxxxxxxxxxxxxxxxxxxxxxxxxxxxxxxxxxxxxxxxxxxx ?
b0000000000000000000000000000000000000000000000000000000000000000 #
bxxxxx 0
bxxxxx 1
bxxxxx 2
bxxxxxxxxxxx 3
bxxxxxxxxxxxxxxxxxxxxxxxxxx G
b0000000000000000 %
$end
#60000
1!
#120000
0!
b0000000000000001 %
#121000
0"
#180000
1!
#240000
0!
b0000000000000010 %
b0000000000000000000000000000000000000000000000000000000000000000 '
b11111000010000000000001111101001 /
b0x00x 2
b01001 0
b11111 1
b11111000010 3
b00010000000000001111101001 G
b0000000000000000000000000000000000000000000000000000000000000000 >
b11111000010 E
b0000000000000000000000000000000000000000000000000000000000000100 .
15
17
18
09
0:
0;
b0010 <
b001 =
16
0H
b0000000000000000000000000000000000000000000000000000000000000000 F
b0000000000000000000000000000000000000000000000000000000000000000 @
b0000000000000000000000000000000000000000000000000000000000000000 B
#241000
1"
#260000
b0000000000000000000000000000000000000000000000000000000000000000 A
#261000
1C
#300000
1!
#320000
b0000000000000000000000000000000000000000000000000000000000000001 &
b0000000000000000000000000000000000000000000000000000000000000001 D
#360000
0!
b0000000000000011 %
b0000000000000000000000000000000000000000000000000000000000000100 '
b11111000010000001000001111101010 /
b0x0x0 2
b01010 0
b00010000001000001111101010 G
b0000000000000000000000000000000000000000000000000000000000001000 .
b0000000000000000000000000000000000000000000000000000000000001000 F
b0000000000000000000000000000000000000000000000000000000000001000 @
b0000000000000000000000000000000000000000000000000000000000001000 B
#380000
b0000000000000000000000000000000000000000000000000000000000001000 A
#381000
0C
#420000
1!
#440000
b0000000000000000000000000000000000000000000000000000000000001010 &
b0000000000000000000000000000000000000000000000000000000000001010 D
#480000
0!
b0000000000000100 %
b0000000000000000000000000000000000000000000000000000000000001000 '
b11111000010000010000001111101011 /
b0x0x1 2
b01011 0
b00010000010000001111101011 G
b0000000000000000000000000000000000000000000000000000000000001100 .
b0000000000000000000000000000000000000000000000000000000000010000 F
b0000000000000000000000000000000000000000000000000000000000010000 @
b0000000000000000000000000000000000000000000000000000000000010000 B
#500000
b0000000000000000000000000000000000000000000000000000000000010000 A
#540000
1!
#560000
b0000000000000000000000000000000000000000000000000000000000000101 &
b0000000000000000000000000000000000000000000000000000000000000101 D
#600000
0!
b0000000000000101 %
b0000000000000000000000000000000000000000000000000000000000001100 '
b11111000010000011000001111101100 /
b0xx0x 2
b01100 0
b00010000011000001111101100 G
b0000000000000000000000000000000000000000000000000000000000010000 .
b0000000000000000000000000000000000000000000000000000000000011000 F
b0000000000000000000000000000000000000000000000000000000000011000 @
b0000000000000000000000000000000000000000000000000000000000011000 B
#620000
b0000000000000000000000000000000000000000000000000000000000011000 A
#660000
1!
#680000
b0000111111111011111010100111110111101010110110111110111011111111 &
b0000111111111011111010100111110111101010110110111110111011111111 D
#720000
0!
b0000000000000110 %
b0000000000000000000000000000000000000000000000000000000000010000 '
b11111000010000100000001111101101 /
b0xxxx 2
b01101 0
b00010000100000001111101101 G
b0000000000000000000000000000000000000000000000000000000000010100 .
b0000000000000000000000000000000000000000000000000000000000100000 F
b0000000000000000000000000000000000000000000000000000000000100000 @
b0000000000000000000000000000000000000000000000000000000000100000 B
#740000
b0000000000000000000000000000000000000000000000000000000000100000 A
#780000
1!
#800000
b0000000000000000000000000000000000000000000000000000000000000000 &
b0000000000000000000000000000000000000000000000000000000000000000 D
#840000
0!
b0000000000000111 %
b0000000000000000000000000000000000000000000000000000000000010100 '
b10101010000010110000000101001010 /
b0101x 2
b01010 0
b01010 1
b10101010000 3
b10000010110000000101001010 G
b0000000000000000000000000000000000000000000000000000000000001010 >
b10101010000 E
b0000000000000000000000000000000000000000000000000000000000011000 .
b0000000000000000000000000000000000000000000000000000000010110000 F
b0000000000000000000000000000000000000000000000000000000010110000 @
b0000000000000000000000000000000000000000000000000000000010110000 B
04
b01011 2
05
08
b0001 <
bxxx =
06
b0000000000000000000000000000000000000000000000000000000000000101 ?
b0000000000000000000000000000000000000000000000000000000000000101 B
b0000000000000000000000000000000000000000000000000000000000100000 D
#860000
b0000000000000000000000000000000000000000000000000000000000001111 A
b0000000000000000000000000000000000000000000000000000000000001111 D
#900000
1!
#960000
0!
b0000000000001000 %
b0000000000000000000000000000000000000000000000000000000000011000 '
b0000000000000000000000000000000000000000000000000000000000001111 >
b10001010000010100000000110001100 /
b01010 2
b01100 0
b01100 1
b10001010000 3
b10000010100000000110001100 G
b0000111111111011111010100111110111101010110110111110111011111111 >
b10001010000 E
b0000000000000000000000000000000000000000000000000000000000011100 .
b0000000000000000000000000000000000000000000000000000000000001111 ?
b0000000000000000000000000000000000000000000000000000000010100000 F
b0000000000000000000000000000000000000000000000000000000010100000 @
b0000000000000000000000000000000000000000000000000000000000001111 B
b0000 <
#1020000
1!
#1080000
0!
b0000000000001001 %
b0000000000000000000000000000000000000000000000000000000000011100 '
b0000000000000000000000000000000000000000000000000000000000001111 >
b10110100000000000000000010001100 /
b00000 2
b00100 1
b10110100000 3
b00000000000000000010001100 G
bxxxxxxxxxxxxxxxxxxxxxxxxxxxxxxxxxxxxxxxxxxxxxxxxxxxxxxxxxxxxxxxx >
b10110100000 E
b0000000000000000000000000000000000000000000000000000000000100000 .
bxxxxxxxxxxxxxxxxxxxxxxxxxxxxxxxxxxxxxxxxxxxxxxxxxxxxxxxxxxxxxxxx ?
b0000000000000000000000000000000000000000000000000000000000000000 F
b0000000000000000000000000000000000000000000000000000000000000000 @
bxxxxxxxxxxxxxxxxxxxxxxxxxxxxxxxxxxxxxxxxxxxxxxxxxxxxxxxxxxxxxxxx B
14
b01100 2
07
1:
b0111 <
b011 =
x6
b0000000000000000000000000000000000000000000000000000000000001111 ?
b000000000000000000000000000000000000000000000000000000000000xxxx D
b0000000000000000000000000000000000000000000000000000000000001111 B
b0000000000000000000000000000000000000000000000000000000000000100 F
b0000000000000000000000000000000000000000000000000000000000000100 @
#1140000
1!
#1200000
0!
b0000000000001010 %
b0000000000000000000000000000000000000000000000000000000000100000 '
b10001011000010010000000110101101 /
b01101 2
b01101 0
b01101 1
b10001011000 3
b11000010010000000110101101 G
b0000000000000000000000000000000000000000000000000000000000000000 >
b10001011000 E
b0000000000000000000000000000000000000000000000000000000000100100 .
b0000000000000000000000000000000000000000000000000000000000000000 ?
b0000000000000000000000000000000000000000000000000100100000001101 F
b0000000000000000000000000000000000000000000000000100100000001101 @
b0000000000000000000000000000000000000000000000000000000000000000 B
04
b01001 2
17
0:
b0010 <
bxxx =
06
b0000000000000000000000000000000000000000000000000000000000000001 ?
b0000000000000000000000000000000000000000000000000000000000001111 D
b0000000000000000000000000000000000000000000000000000000000000001 B
#1220000
b0000000000000000000000000000000000000000000000000000000000000001 A
b0000000000000000000000000000000000000000000000000000000000000001 D
#1260000
1!
#1320000
0!
b0000000000001011 %
b0000000000000000000000000000000000000000000000000000000000100100 '
b0000000000000000000000000000000000000000000000000000000000000001 >
b11001011000010010000000110001100 /
b01100 0
b01100 1
b11001011000 3
b11000010010000000110001100 G
b0000000000000000000000000000000000000000000000000000000000001111 >
b11001011000 E
b0000000000000000000000000000000000000000000000000000000000101000 .
b0000000000000000000000000000000000000000000000000100100000001100 F
b0000000000000000000000000000000000000000000000000100100000001100 @
b0110 <
#1340000
b0000000000000000000000000000000000000000000000000000000000001110 A
b0000000000000000000000000000000000000000000000000000000000001110 D
#1380000
1!
#1440000
0!
b0000000000001100 %
b0000000000000000000000000000000000000000000000000000000000101000 '
b0000000000000000000000000000000000000000000000000000000000001110 >
b00010111111111111111111111111101 /
b11111 2
b11101 0
b11111 1
b00010111111 3
b11111111111111111111111101 G
b0000000000000000000000000000000000000000000000000000000000000000 >
b00010111111 E
b0000000000000000000000000000000000000000000000000000000000101100 .
b0000000000000000000000000000000000000000000000000000000000000000 ?
1H
b1111111111111111111111111111111111111111111111111111111111111111 F
b1111111111111111111111111111111111111111111111111111111111111111 @
b0000000000000000000000000000000000000000000000000000000000000000 B
x4
b111x1 2
07
1;
b0111 <
b010 =
x6
bxxxxxxxxxxxxxxxxxxxxxxxxxxxxxxxxxxxxxxxxxxxxxxxxxxxxxxxxxxxxxxxx ?
b0000000000000000000000000000000000000000000000000000000000100100 .
b000000000000000000000000000000000000000000000000000000000000xxx0 D
bxxxxxxxxxxxxxxxxxxxxxxxxxxxxxxxxxxxxxxxxxxxxxxxxxxxxxxxxxxxxxxxx B
b1111111111111111111111111111111111111111111111111111111111111101 F
b1111111111111111111111111111111111111111111111111111111111111101 @
b0000000000000000000000000000000000000000000000000000000000011100 .
#1460000
bxxxxxxxxxxxxxxxxxxxxxxxxxxxxxxxxxxxxxxxxxxxxxxxxxxxxxxxxxxxxxxxx A
bxxxxxxxxxxxxxxxxxxxxxxxxxxxxxxxxxxxxxxxxxxxxxxxxxxxxxxxxxxxxxxxx D
#1461000
xC
#1500000
1!
#1560000
0!
b0000000000001101 %
b0000000000000000000000000000000000000000000000000000000000011100 '
b10110100000000000000000010001100 /
b0xx00 2
b01100 0
b00100 1
b10110100000 3
b00000000000000000010001100 G
bxxxxxxxxxxxxxxxxxxxxxxxxxxxxxxxxxxxxxxxxxxxxxxxxxxxxxxxxxxxxxxxx >
b10110100000 E
b0000000000000000000000000000000000000000000000000000000000010000 .
0H
b0000000000000000000000000000000000000000000000000000000010001100 F
b0000000000000000000000000000000000000000000000000000000010001100 @
b0000000000000000000000000000000000000000000000000000001001001100 .
14
b01100 2
1:
0;
b011 =
b0000000000000000000000000000000000000000000000000000000000001110 ?
b0000000000000000000000000000000000000000000000000000000000100000 .
b0000000000000000000000000000000000000000000000000000000000001110 B
b0000000000000000000000000000000000000000000000000000000000000100 F
b0000000000000000000000000000000000000000000000000000000000000100 @
#1580000
b0000000000000000000000000000000000000000000000000000000000001110 A
b000000000000000000000000000000000000000000000000000000000000xxx0 D
#1581000
0C
#1620000
1!
#1680000
0!
b0000000000001110 %
b0000000000000000000000000000000000000000000000000000000000100000 '
b10001011000010010000000110101101 /
b01101 2
b01101 0
b01101 1
b10001011000 3
b11000010010000000110101101 G
b0000000000000000000000000000000000000000000000000000000000000001 >
b10001011000 E
b0000000000000000000000000000000000000000000000000000000000100100 .
b0000000000000000000000000000000000000000000000000000000000000001 ?
b0000000000000000000000000000000000000000000000000100100000001101 F
b0000000000000000000000000000000000000000000000000100100000001101 @
b0000000000000000000000000000000000000000000000000000000000000001 B
04
b01001 2
17
0:
b0010 <
bxxx =
06
b0000000000000000000000000000000000000000000000000000000000001110 D
#1700000
b0000000000000000000000000000000000000000000000000000000000000010 A
b0000000000000000000000000000000000000000000000000000000000000010 D
#1740000
1!
#1800000
0!
b0000000000001111 %
b0000000000000000000000000000000000000000000000000000000000100100 '
b0000000000000000000000000000000000000000000000000000000000000010 >
b11001011000010010000000110001100 /
b01100 0
b01100 1
b11001011000 3
b11000010010000000110001100 G
b0000000000000000000000000000000000000000000000000000000000001110 >
b11001011000 E
b0000000000000000000000000000000000000000000000000000000000101000 .
b0000000000000000000000000000000000000000000000000100100000001100 F
b0000000000000000000000000000000000000000000000000100100000001100 @
b0110 <
#1820000
b0000000000000000000000000000000000000000000000000000000000001101 A
b0000000000000000000000000000000000000000000000000000000000001101 D
#1860000
1!
#1920000
0!
b0000000000010000 %
b0000000000000000000000000000000000000000000000000000000000101000 '
b0000000000000000000000000000000000000000000000000000000000001101 >
b00010111111111111111111111111101 /
b11111 2
b11101 0
b11111 1
b00010111111 3
b11111111111111111111111101 G
b0000000000000000000000000000000000000000000000000000000000000000 >
b00010111111 E
b0000000000000000000000000000000000000000000000000000000000101100 .
b0000000000000000000000000000000000000000000000000000000000000000 ?
1H
b1111111111111111111111111111111111111111111111111111111111111111 F
b1111111111111111111111111111111111111111111111111111111111111111 @
b0000000000000000000000000000000000000000000000000000000000000000 B
x4
b111x1 2
07
1;
b0111 <
b010 =
x6
bxxxxxxxxxxxxxxxxxxxxxxxxxxxxxxxxxxxxxxxxxxxxxxxxxxxxxxxxxxxxxxxx ?
b0000000000000000000000000000000000000000000000000000000000100100 .
b000000000000000000000000000000000000000000000000000000000000xx0x D
bxxxxxxxxxxxxxxxxxxxxxxxxxxxxxxxxxxxxxxxxxxxxxxxxxxxxxxxxxxxxxxxx B
b1111111111111111111111111111111111111111111111111111111111111101 F
b1111111111111111111111111111111111111111111111111111111111111101 @
b0000000000000000000000000000000000000000000000000000000000011100 .
#1940000
bxxxxxxxxxxxxxxxxxxxxxxxxxxxxxxxxxxxxxxxxxxxxxxxxxxxxxxxxxxxxxxxx A
bxxxxxxxxxxxxxxxxxxxxxxxxxxxxxxxxxxxxxxxxxxxxxxxxxxxxxxxxxxxxxxxx D
#1941000
xC
#1980000
1!
#2040000
0!
b0000000000010001 %
b0000000000000000000000000000000000000000000000000000000000011100 '
b10110100000000000000000010001100 /
b0xx00 2
b01100 0
b00100 1
b10110100000 3
b00000000000000000010001100 G
bxxxxxxxxxxxxxxxxxxxxxxxxxxxxxxxxxxxxxxxxxxxxxxxxxxxxxxxxxxxxxxxx >
b10110100000 E
b0000000000000000000000000000000000000000000000000000000000010000 .
0H
b0000000000000000000000000000000000000000000000000000000010001100 F
b0000000000000000000000000000000000000000000000000000000010001100 @
b0000000000000000000000000000000000000000000000000000001001001100 .
14
b01100 2
1:
0;
b011 =
b0000000000000000000000000000000000000000000000000000000000001101 ?
b0000000000000000000000000000000000000000000000000000000000100000 .
b0000000000000000000000000000000000000000000000000000000000001101 B
b0000000000000000000000000000000000000000000000000000000000000100 F
b0000000000000000000000000000000000000000000000000000000000000100 @
#2060000
b0000000000000000000000000000000000000000000000000000000000001101 A
b000000000000000000000000000000000000000000000000000000000000xx0x D
#2061000
0C
#2100000
1!
#2160000
0!
b0000000000010010 %
b0000000000000000000000000000000000000000000000000000000000100000 '
b10001011000010010000000110101101 /
b01101 2
b01101 0
b01101 1
b10001011000 3
b11000010010000000110101101 G
b0000000000000000000000000000000000000000000000000000000000000010 >
b10001011000 E
b0000000000000000000000000000000000000000000000000000000000100100 .
b0000000000000000000000000000000000000000000000000000000000000010 ?
b0000000000000000000000000000000000000000000000000100100000001101 F
b0000000000000000000000000000000000000000000000000100100000001101 @
b0000000000000000000000000000000000000000000000000000000000000010 B
04
b01001 2
17
0:
b0010 <
bxxx =
06
b0000000000000000000000000000000000000000000000000000000000000001 ?
b0000000000000000000000000000000000000000000000000000000000001101 D
b0000000000000000000000000000000000000000000000000000000000000001 B
#2180000
b0000000000000000000000000000000000000000000000000000000000000011 A
b0000000000000000000000000000000000000000000000000000000000000011 D
#2220000
1!
#2280000
0!
b0000000000010011 %
b0000000000000000000000000000000000000000000000000000000000100100 '
b0000000000000000000000000000000000000000000000000000000000000011 >
b11001011000010010000000110001100 /
b01100 0
b01100 1
b11001011000 3
b11000010010000000110001100 G
b0000000000000000000000000000000000000000000000000000000000001101 >
b11001011000 E
b0000000000000000000000000000000000000000000000000000000000101000 .
b0000000000000000000000000000000000000000000000000100100000001100 F
b0000000000000000000000000000000000000000000000000100100000001100 @
b0110 <
#2300000
b0000000000000000000000000000000000000000000000000000000000001100 A
b0000000000000000000000000000000000000000000000000000000000001100 D
#2340000
1!
#2400000
0!
b0000000000010100 %
b0000000000000000000000000000000000000000000000000000000000101000 '
b0000000000000000000000000000000000000000000000000000000000001100 >
b00010111111111111111111111111101 /
b11111 2
b11101 0
b11111 1
b00010111111 3
b11111111111111111111111101 G
b0000000000000000000000000000000000000000000000000000000000000000 >
b00010111111 E
b0000000000000000000000000000000000000000000000000000000000101100 .
b0000000000000000000000000000000000000000000000000000000000000000 ?
1H
b1111111111111111111111111111111111111111111111111111111111111111 F
b1111111111111111111111111111111111111111111111111111111111111111 @
b0000000000000000000000000000000000000000000000000000000000000000 B
x4
b111x1 2
07
1;
b0111 <
b010 =
x6
bxxxxxxxxxxxxxxxxxxxxxxxxxxxxxxxxxxxxxxxxxxxxxxxxxxxxxxxxxxxxxxxx ?
b0000000000000000000000000000000000000000000000000000000000100100 .
b000000000000000000000000000000000000000000000000000000000000xx00 D
bxxxxxxxxxxxxxxxxxxxxxxxxxxxxxxxxxxxxxxxxxxxxxxxxxxxxxxxxxxxxxxxx B
b1111111111111111111111111111111111111111111111111111111111111101 F
b1111111111111111111111111111111111111111111111111111111111111101 @
b0000000000000000000000000000000000000000000000000000000000011100 .
#2420000
bxxxxxxxxxxxxxxxxxxxxxxxxxxxxxxxxxxxxxxxxxxxxxxxxxxxxxxxxxxxxxxxx A
bxxxxxxxxxxxxxxxxxxxxxxxxxxxxxxxxxxxxxxxxxxxxxxxxxxxxxxxxxxxxxxxx D
#2421000
xC
#2460000
1!
#2520000
0!
b0000000000010101 %
b0000000000000000000000000000000000000000000000000000000000011100 '
b10110100000000000000000010001100 /
b0xx00 2
b01100 0
b00100 1
b10110100000 3
b00000000000000000010001100 G
bxxxxxxxxxxxxxxxxxxxxxxxxxxxxxxxxxxxxxxxxxxxxxxxxxxxxxxxxxxxxxxxx >
b10110100000 E
b0000000000000000000000000000000000000000000000000000000000010000 .
0H
b0000000000000000000000000000000000000000000000000000000010001100 F
b0000000000000000000000000000000000000000000000000000000010001100 @
b0000000000000000000000000000000000000000000000000000001001001100 .
14
b01100 2
1:
0;
b011 =
b0000000000000000000000000000000000000000000000000000000000001100 ?
b0000000000000000000000000000000000000000000000000000000000100000 .
b0000000000000000000000000000000000000000000000000000000000001100 B
b0000000000000000000000000000000000000000000000000000000000000100 F
b0000000000000000000000000000000000000000000000000000000000000100 @
#2540000
b0000000000000000000000000000000000000000000000000000000000001100 A
b000000000000000000000000000000000000000000000000000000000000xx00 D
#2541000
0C
#2580000
1!
#2640000
0!
b0000000000010110 %
b0000000000000000000000000000000000000000000000000000000000100000 '
b10001011000010010000000110101101 /
b01101 2
b01101 0
b01101 1
b10001011000 3
b11000010010000000110101101 G
b0000000000000000000000000000000000000000000000000000000000000011 >
b10001011000 E
b0000000000000000000000000000000000000000000000000000000000100100 .
b0000000000000000000000000000000000000000000000000000000000000011 ?
b0000000000000000000000000000000000000000000000000100100000001101 F
b0000000000000000000000000000000000000000000000000100100000001101 @
b0000000000000000000000000000000000000000000000000000000000000011 B
04
b01001 2
17
0:
b0010 <
bxxx =
06
b0000000000000000000000000000000000000000000000000000000000000001 ?
b0000000000000000000000000000000000000000000000000000000000001100 D
b0000000000000000000000000000000000000000000000000000000000000001 B
#2660000
b0000000000000000000000000000000000000000000000000000000000000100 A
b0000000000000000000000000000000000000000000000000000000000000100 D
#2700000
1!
#2760000
0!
b0000000000010111 %
b0000000000000000000000000000000000000000000000000000000000100100 '
b0000000000000000000000000000000000000000000000000000000000000100 >
b11001011000010010000000110001100 /
b01100 0
b01100 1
b11001011000 3
b11000010010000000110001100 G
b0000000000000000000000000000000000000000000000000000000000001100 >
b11001011000 E
b0000000000000000000000000000000000000000000000000000000000101000 .
b0000000000000000000000000000000000000000000000000100100000001100 F
b0000000000000000000000000000000000000000000000000100100000001100 @
b0110 <
#2780000
b0000000000000000000000000000000000000000000000000000000000001011 A
b0000000000000000000000000000000000000000000000000000000000001011 D
#2820000
1!
#2880000
0!
b0000000000011000 %
b0000000000000000000000000000000000000000000000000000000000101000 '
b0000000000000000000000000000000000000000000000000000000000001011 >
b00010111111111111111111111111101 /
b11111 2
b11101 0
b11111 1
b00010111111 3
b11111111111111111111111101 G
b0000000000000000000000000000000000000000000000000000000000000000 >
b00010111111 E
b0000000000000000000000000000000000000000000000000000000000101100 .
b0000000000000000000000000000000000000000000000000000000000000000 ?
1H
b1111111111111111111111111111111111111111111111111111111111111111 F
b1111111111111111111111111111111111111111111111111111111111111111 @
b0000000000000000000000000000000000000000000000000000000000000000 B
x4
b111x1 2
07
1;
b0111 <
b010 =
x6
bxxxxxxxxxxxxxxxxxxxxxxxxxxxxxxxxxxxxxxxxxxxxxxxxxxxxxxxxxxxxxxxx ?
b0000000000000000000000000000000000000000000000000000000000100100 .
b000000000000000000000000000000000000000000000000000000000000x0xx D
bxxxxxxxxxxxxxxxxxxxxxxxxxxxxxxxxxxxxxxxxxxxxxxxxxxxxxxxxxxxxxxxx B
b1111111111111111111111111111111111111111111111111111111111111101 F
b1111111111111111111111111111111111111111111111111111111111111101 @
b0000000000000000000000000000000000000000000000000000000000011100 .
#2900000
bxxxxxxxxxxxxxxxxxxxxxxxxxxxxxxxxxxxxxxxxxxxxxxxxxxxxxxxxxxxxxxxx A
bxxxxxxxxxxxxxxxxxxxxxxxxxxxxxxxxxxxxxxxxxxxxxxxxxxxxxxxxxxxxxxxx D
#2901000
xC
#2940000
1!
#3000000
0!
b0000000000011001 %
b0000000000000000000000000000000000000000000000000000000000011100 '
b10110100000000000000000010001100 /
b0xx00 2
b01100 0
b00100 1
b10110100000 3
b00000000000000000010001100 G
bxxxxxxxxxxxxxxxxxxxxxxxxxxxxxxxxxxxxxxxxxxxxxxxxxxxxxxxxxxxxxxxx >
b10110100000 E
b0000000000000000000000000000000000000000000000000000000000010000 .
0H
b0000000000000000000000000000000000000000000000000000000010001100 F
b0000000000000000000000000000000000000000000000000000000010001100 @
b0000000000000000000000000000000000000000000000000000001001001100 .
14
b01100 2
1:
0;
b011 =
b0000000000000000000000000000000000000000000000000000000000001011 ?
b0000000000000000000000000000000000000000000000000000000000100000 .
b0000000000000000000000000000000000000000000000000000000000001011 B
b0000000000000000000000000000000000000000000000000000000000000100 F
b0000000000000000000000000000000000000000000000000000000000000100 @
#3020000
b0000000000000000000000000000000000000000000000000000000000001011 A
b000000000000000000000000000000000000000000000000000000000000x0xx D
#3021000
0C
#3060000
1!
#3120000
0!
b0000000000011010 %
b0000000000000000000000000000000000000000000000000000000000100000 '
b10001011000010010000000110101101 /
b01101 2
b01101 0
b01101 1
b10001011000 3
b11000010010000000110101101 G
b0000000000000000000000000000000000000000000000000000000000000100 >
b10001011000 E
b0000000000000000000000000000000000000000000000000000000000100100 .
b0000000000000000000000000000000000000000000000000000000000000100 ?
b0000000000000000000000000000000000000000000000000100100000001101 F
b0000000000000000000000000000000000000000000000000100100000001101 @
b0000000000000000000000000000000000000000000000000000000000000100 B
04
b01001 2
17
0:
b0010 <
bxxx =
06
b0000000000000000000000000000000000000000000000000000000000000001 ?
b0000000000000000000000000000000000000000000000000000000000001011 D
b0000000000000000000000000000000000000000000000000000000000000001 B
#3140000
b0000000000000000000000000000000000000000000000000000000000000101 A
b0000000000000000000000000000000000000000000000000000000000000101 D
#3180000
1!
#3240000
0!
b0000000000011011 %
b0000000000000000000000000000000000000000000000000000000000100100 '
b0000000000000000000000000000000000000000000000000000000000000101 >
b11001011000010010000000110001100 /
b01100 0
b01100 1
b11001011000 3
b11000010010000000110001100 G
b0000000000000000000000000000000000000000000000000000000000001011 >
b11001011000 E
b0000000000000000000000000000000000000000000000000000000000101000 .
b0000000000000000000000000000000000000000000000000100100000001100 F
b0000000000000000000000000000000000000000000000000100100000001100 @
b0110 <
#3260000
b0000000000000000000000000000000000000000000000000000000000001010 A
b0000000000000000000000000000000000000000000000000000000000001010 D
#3300000
1!
